com\phonebook\repository\AccountRepository.class
com\phonebook\annotations\UsernameConstraintValidator.class
com\phonebook\service\ContactService.class
com\phonebook\config\UrlService.class
com\phonebook\SpringBootWebApplication.class
com\phonebook\annotations\MobileConstraintValidator.class
com\phonebook\annotations\MobileNumber.class
com\phonebook\aop\RegistrationControllerAspect.class
com\phonebook\service\AccountUserServiceImpl.class
com\phonebook\annotations\HomeConstraintValidator.class
com\phonebook\entity\ContactEntity.class
com\phonebook\service\AccountUserService.class
com\phonebook\controllers\IndexController.class
com\phonebook\annotations\Username.class
com\phonebook\repository\ContactRepository.class
com\phonebook\controllers\PhoneBookController.class
com\phonebook\annotations\EmailConstraintValidator.class
com\phonebook\service\ContactServiceImpl.class
com\phonebook\service\AccountUserServiceI.class
com\phonebook\annotations\HomeNumber.class
com\phonebook\config\Config.class
com\phonebook\config\Config$1.class
com\phonebook\annotations\Email.class
com\phonebook\config\WebSecurityConfig.class
com\phonebook\entity\UserEntity.class
